# PROJECT BLUEPRINT - COMPREHENSIVE ANALYSIS

## 1. PROJECT OVERVIEW

This project is a sophisticated Go-based boilerplate application with a modular architecture, comprehensive API structure, and advanced monitoring capabilities. The system is designed for extensibility, security, and production readiness.

### Key Characteristics:
- **Language**: Go (Golang)
- **Framework**: Echo for HTTP services
- **Architecture**: Modular, service-oriented
- **UI**: Terminal User Interface (TUI) using Bubble Tea
- **Monitoring**: Real-time system and service monitoring
- **Security**: API obfuscation, comprehensive error handling

## 2. ARCHITECTURE & DESIGN

### 2.1 System Architecture

The project follows a clean, layered architecture with clear separation of concerns:

```
Client → Handler → Request Binding → Validation → Business Logic → Response
```

### 2.2 Package Organization

- **cmd/**: Application entry points
- **config/**: Configuration management
- **internal/**: Core application logic (private)
  - **middleware/**: HTTP middleware
  - **monitoring/**: Monitoring system
  - **server/**: HTTP server setup
  - **services/**: Business services
  - **modules/**: Individual service implementations
- **pkg/**: Reusable packages (public)
  - **request/**: Request handling and validation
  - **response/**: Standardized API responses
  - **tui/**: Terminal User Interface
  - **infrastructure/**: External service integrations
  - **logger/**: Logging utilities
  - **utils/**: Utility functions

### 2.3 Request/Response Flow

1. **Client Request** → HTTP Handler
2. **Handler** → request.Bind (parse JSON)
3. **Bind** → request.Validate (input validation)
4. **Validate** → Business Logic (success) or Error (failure)
5. **Logic** → response.Success or response.Error
6. **Response** → JSON Response to Client

## 3. API STRUCTURE

### 3.1 Standardized Response Format

All API responses follow a consistent structure:

```json
{
  "success": true/false,
  "message": "Optional message",
  "data": {},
  "error": {
    "code": "ERROR_CODE",
    "message": "Error message",
    "details": {}
  },
  "meta": {
    "page": 1,
    "per_page": 10,
    "total": 100,
    "total_pages": 10
  },
  "timestamp": 1672531200
}
```

### 3.2 Response Helper Functions

**Success Responses:**
- `response.Success(c, data, message)` - 200 OK
- `response.SuccessWithMeta(c, data, meta, message)` - 200 OK with metadata
- `response.Created(c, data, message)` - 201 Created
- `response.NoContent(c)` - 204 No Content

**Error Responses:**
- `response.BadRequest(c, message, details)` - 400
- `response.Unauthorized(c, message)` - 401
- `response.Forbidden(c, message)` - 403
- `response.NotFound(c, message)` - 404
- `response.Conflict(c, message, details)` - 409
- `response.ValidationError(c, message, details)` - 422
- `response.InternalServerError(c, message)` - 500
- `response.ServiceUnavailable(c, message)` - 503
- `response.Error(c, statusCode, errorCode, message, details)` - Custom

### 3.3 Request Validation

**Built-in Validators:**
- `required` - Field must not be empty
- `email` - Valid email format
- `min`, `max` - String length or numeric range
- `gte`, `lte` - Greater/less than or equal
- `oneof` - Value must be one of specified options

**Custom Validators:**
- `phone` - Valid phone number format
- `username` - Alphanumeric username (3-20 chars)

### 3.4 Pagination Support

```go
type PaginationRequest struct {
    Page    int    `query:"page" json:"page"`
    PerPage int    `query:"per_page" json:"per_page"`
    Sort    string `query:"sort" json:"sort,omitempty"`
    Order   string `query:"order" json:"order,omitempty"`
}

// Helper methods:
pagination.GetPage()      // Returns page (default: 1)
pagination.GetPerPage()   // Returns per_page (default: 10, max: 100)
pagination.GetOffset()    // Calculates offset for DB queries
```

## 4. SECURITY FEATURES

### 4.1 API Obfuscation

**Purpose:** Obscure JSON data in transit using Base64 encoding

**Configuration:**
```yaml
monitoring:
  obfuscate_api: true  # Enable/disable obfuscation
```

**Implementation:**
- **Backend**: `internal/monitoring/middleware/obfuscator.go`
  - Intercepts `/api/*` requests
  - Excludes: `/api/logs`, `/api/cpu`, `/api/user/photos`
  - Encodes JSON responses with Base64
  - Sets `X-Obfuscated: true` header
  - Updates `Content-Length` header

- **Frontend**: `web/monitoring/assets/js/app.js`
  - Uses `window.fetch` interceptor
  - "Parse First, Decode Second" strategy
  - Handles both obfuscated and standard responses
  - Normalizes URL-safe characters and adds padding

### 4.2 Error Handling

**Custom HTTP Error Handler** in `internal/server/server.go`:

- **404 Not Found**: Returns detailed JSON with path and method
- **Other HTTP Errors**: Returns simplified JSON responses
- **Internal Errors**: Returns 500 with correlation ID
- **All errors logged** with context for debugging

**Error Codes:**
- 400: `BAD_REQUEST`
- 401: `UNAUTHORIZED`
- 403: `FORBIDDEN`
- 404: `ENDPOINT_NOT_FOUND` / `NOT_FOUND`
- 405: `HTTP_ERROR`
- 409: `CONFLICT`
- 422: `VALIDATION_ERROR`
- 500: `INTERNAL_ERROR`
- 503: `SERVICE_UNAVAILABLE`

## 5. SERVICE ARCHITECTURE

### 5.1 Service Interface

All services implement the `Service` interface:

```go
type Service interface {
    Name() string                      // Display name
    RegisterRoutes(g *echo.Group)      // Register HTTP routes
    Enabled() bool                     // Service active status
    Endpoints() []string               // List of endpoints
}
```

### 5.2 Service Implementation

**Basic Service Example:**
```go
type OrdersService struct {
    enabled bool
}

func NewOrdersService(enabled bool) *OrdersService {
    return &OrdersService{enabled: enabled}
}

func (s *OrdersService) Name() string { return "Orders Service" }
func (s *OrdersService) Enabled() bool { return s.enabled }
func (s *OrdersService) Endpoints() []string { return []string{"/orders", "/orders/:id"} }

func (s *OrdersService) RegisterRoutes(g *echo.Group) {
    sub := g.Group("/orders")
    sub.GET("", s.listOrders)
    sub.GET("/:id", s.getOrder)
    sub.POST("", s.createOrder)
}
```

**Service with Dependencies:**
```go
type InventoryService struct {
    db      *infrastructure.PostgresManager
    redis   *infrastructure.RedisManager
    enabled bool
}

func NewInventoryService(
    db *infrastructure.PostgresManager,
    redis *infrastructure.RedisManager,
    enabled bool,
) *InventoryService {
    return &InventoryService{
        db:      db,
        redis:   redis,
        enabled: enabled,
    }
}
```

### 5.3 Service Registration

Services are registered in `internal/server/server.go`:

```go
registry.Register(modules.NewServiceA(s.config.Services.IsEnabled("service_a")))
registry.Register(modules.NewOrdersService(s.config.Services.IsEnabled("orders")))
registry.Register(modules.NewServiceE(s.config.Services.IsEnabled("service_e")))
```

### 5.4 Service Configuration

```yaml
services:
  service_a: true
  service_b: false
  orders: true
  inventory: true
```

## 6. TERMINAL USER INTERFACE (TUI)

### 6.1 Overview

The TUI provides visual feedback during boot and real-time monitoring using Bubble Tea framework.

**Technologies:**
- Bubble Tea: TUI framework
- Lipgloss: Styling and layout
- Bubbles: Pre-built components

### 6.2 Boot Sequence (`pkg/tui/boot.go`)

**Features:**
- Phased execution (Starting → Initializing → Complete/Countdown)
- Visual feedback with spinners and progress bars
- Service queue with color-coded status
- Interactive controls (skip countdown, quit)

**Phases:**
1. **Starting**: Intro animation
2. **Initializing**: Service initialization with real-time feedback
3. **Complete/Countdown**: Success message with optional countdown

### 6.3 Live Dashboard (`pkg/tui/dashboard.go`)

**Features:**
- Real-time system monitoring (CPU, Memory, Goroutines)
- Infrastructure status (database, cache connections)
- Service health status
- Responsive design adapting to terminal size
- 500ms update interval

**Layout:**
- **Header**: App name, version, status
- **System Box**: Resource usage with color-coded bars
- **Infrastructure Box**: External connection status
- **Services Box**: Internal service health

### 6.4 Styling System (`pkg/tui/styles.go`)

**Color Palette (Dracula-inspired):**
- Primary: Pink (#FF79C6), Purple (#BD93F9), Cyan (#8BE9FD)
- Status: Green (#50FA7B), Yellow (#F1FA8C), Red (#FF5555)
- UI Elements: Dark Grey (#6272A4)

**Animations:**
- Wave animation (boot screen)
- Pulse effects (color cycling)

## 7. INFRASTRUCTURE INTEGRATION

### 7.1 Redis

**Configuration:**
```yaml
redis:
  enabled: true
  host: "localhost"
  port: "6379"
  password: ""
  db: 0
```

**Usage:**
```go
ctx := context.Background()
err := redis.Set(ctx, "my-key", "my-value", time.Minute*10)
val, err := redis.Get(ctx, "my-key")
err = redis.Delete(ctx, "my-key")
```

### 7.2 Postgres

**Configuration:**
```yaml
postgres:
  enabled: true
  host: "localhost"
  port: "5432"
  user: "postgres"
  password: "password"
  dbname: "mydb"
  sslmode: "disable"
  max_open_conns: 10
  max_idle_conns: 5
```

**Usage:**
```go
var users []User
err := db.DB.Select(&users, "SELECT * FROM users WHERE active = $1", true)
```

### 7.3 Kafka

**Configuration:**
```yaml
kafka:
  enabled: true
  brokers: ["localhost:9092"]
  topic: "my-topic"
  group_id: "my-group"
```

**Usage:**
```go
err := kafka.Publish("notification-topic", []byte("Hello Kafka"))
```

### 7.4 MinIO (Object Storage)

**Configuration:**
```yaml
monitoring:
  minio:
    enabled: true
    endpoint: "localhost:9000"
    access_key: "minioadmin"
    secret_key: "minioadmin"
    use_ssl: false
    bucket: "my-bucket"
    region: "us-east-1"
```

**Usage:**
```go
file, _ := fileHeader.Open()
defer file.Close()

info, err := storage.UploadFile(context.Background(), "avatars/user-1.jpg", file, fileHeader.Size, "image/jpeg")
url := storage.GetFileUrl("avatars/user-1.jpg")
```

### 7.5 Cron Jobs

**Configuration:**
```yaml
cron:
  enabled: true
  jobs:
    "cleanup_logs": "0 0 * * *"   # Midnight
    "health_check": "*/5 * * * *" # Every 5 minutes
```

**Usage:**
```go
id, err := cron.AddJob("database_backup", "0 3 * * *", func() {
    fmt.Println("Performing database backup...")
})
```

## 8. BEST PRACTICES

### 8.1 API Development

1. **Use response helpers** - Never manually construct responses
2. **Validate all requests** - Use built-in and custom validators
3. **Standardize error codes** - Make errors machine-readable
4. **Include meaningful messages** - Help developers debug
5. **Use pagination** - For all list endpoints
6. **Return appropriate status codes** - Follow HTTP standards
7. **Include timestamps** - All responses have Unix timestamps
8. **Keep responses consistent** - Same structure across endpoints

### 8.2 Service Development

1. **Implement Service interface** - Name, RegisterRoutes, Enabled, Endpoints
2. **Use dependency injection** - For infrastructure components
3. **Register in server.go** - Use `IsEnabled()` for dynamic config
4. **Add to config.yaml** - Under `services:` section
5. **Handle errors gracefully** - Use response helpers
6. **Validate inputs** - Use request.Bind and validation tags

### 8.3 Configuration Management

1. **Use config.yaml** - For all runtime configuration
2. **Default to enabled** - Services enabled by default if not specified
3. **Environment variables** - Can override config values
4. **Validation** - Config values are validated at startup

## 9. PROJECT STRUCTURE SUMMARY

```
bp-go-def/
├── cmd/
│   └── app/
│       └── main.go              # Application entry point
├── config/
│   └── config.go               # Configuration management
├── internal/
│   ├── middleware/             # HTTP middleware
│   ├── monitoring/             # Monitoring system
│   ├── server/                 # HTTP server
│   └── services/               # Business services
│       ├── services.go         # Service interface
│       └── modules/            # Service implementations
├── pkg/
│   ├── request/                # Request handling
│   ├── response/               # Response helpers
│   ├── tui/                    # Terminal UI
│   ├── infrastructure/         # External integrations
│   ├── logger/                 # Logging
│   └── utils/                  # Utilities
├── docs_wiki/                  # Documentation
│   ├── API_OBFUSCATION.md
│   ├── API_RESPONSE_STRUCTURE.md
│   ├── ARCHITECTURE_DIAGRAMS.md
│   ├── ERROR_HANDLING.md
│   ├── HOME.md
│   ├── INTEGRATION_GUIDE.md
│   ├── REQUEST_RESPONSE_STRUCTURE.md
│   ├── SERVICE_IMPLEMENTATION.md
│   ├── TUI_IMPLEMENTATION.md
│   └── blueprint/              # Blueprint files
│       └── blueprint.txt       # This file
└── web/                       # Web assets
    └── monitoring/            # Monitoring UI
```

## 10. KEY FEATURES SUMMARY

### 10.1 Core Features

- **Modular Architecture**: Services can be enabled/disabled via config
- **Standardized API**: Consistent request/response structure
- **Comprehensive Validation**: Built-in and custom validators
- **Advanced Error Handling**: Custom HTTP error handler
- **API Obfuscation**: Base64 encoding for data privacy
- **Real-time Monitoring**: System and service health dashboard
- **Terminal UI**: Interactive boot sequence and dashboard
- **Infrastructure Integrations**: Redis, Postgres, Kafka, MinIO, Cron

### 10.2 Technical Highlights

- **Echo Framework**: High-performance HTTP server
- **Bubble Tea**: Modern TUI framework
- **GORM**: ORM for database operations
- **Validator**: Request validation library
- **Gopsutil**: System monitoring library
- **Clean Architecture**: Separation of concerns
- **Dependency Injection**: For service components
- **Configuration Management**: YAML-based with defaults

### 10.3 Production Readiness

- **Comprehensive Logging**: Structured logging with context
- **Error Tracking**: Correlation IDs for debugging
- **Health Monitoring**: Real-time system metrics
- **Graceful Shutdown**: Proper resource cleanup
- **Configuration Validation**: At startup
- **Security Features**: API obfuscation, proper error handling
- **Scalability**: Modular design for horizontal scaling

## 11. GETTING STARTED

### 11.1 Setup

1. **Install Dependencies**:
```bash
go mod tidy
```

2. **Configure Services** in `config.yaml`:
```yaml
services:
  service_a: true
  service_b: false
  # Add your services here
```

3. **Run Application**:
```bash
go run cmd/app/main.go
```

### 11.2 Development Workflow

1. **Create New Service**:
   - Implement `Service` interface in `internal/services/modules/`
   - Register in `internal/server/server.go`
   - Add to `config.yaml`

2. **Add API Endpoints**:
   - Use `request.Bind()` for input validation
   - Use `response.Success()` or `response.Error()` helpers
   - Follow standardized response format

3. **Integrate Infrastructure**:
   - Use dependency injection for Redis, Postgres, etc.
   - Configure in `config.yaml`
   - Use infrastructure managers from `pkg/infrastructure/`

4. **Test and Monitor**:
   - Use TUI dashboard for real-time monitoring
   - Check logs for errors and debugging
   - Verify API responses with Postman/curl

## 12. CONCLUSION

This project represents a sophisticated, production-ready Go boilerplate with comprehensive features for API development, service management, monitoring, and infrastructure integration. The modular architecture, standardized patterns, and extensive documentation make it an excellent foundation for building scalable, maintainable applications.

The combination of:
- **Clean architecture** with separation of concerns
- **Comprehensive API structure** with validation and error handling
- **Advanced monitoring** with TUI dashboard
- **Security features** like API obfuscation
- **Infrastructure integrations** for common services

makes this boilerplate suitable for a wide range of applications from simple APIs to complex microservices systems.
